ISSS608-VAA - Take-Home-Exercise_02
…
no_pop_list <- as.vector(no_pop$PA)

new_pop <- freq_pop %>%
  filter(!PA %in% no_pop_list)

new_pop

# A tibble: 1,386 × 5
   Sex    AG     Time PA            Count
   <chr>  <chr> <int> <chr>         <dbl>
 1 Female 0 - 4  2022 Ang Mo Kio     9920
 2 Female 0 - 4  2022 Bedok         19850
 3 Female 0 - 4  2022 Bishan         5300
 4 Female 0 - 4  2022 Bukit Batok   17580
 5 Female 0 - 4  2022 Bukit Merah   11340
 6 Female 0 - 4  2022 Bukit Panjang 10900
 7 Female 0 - 4  2022 Bukit Timah    7000
 8 Female 0 - 4  2022 Changi          130
 9 Female 0 - 4  2022 Choa Chu Kang 16280
10 Female 0 - 4  2022 Clementi       6950
# … with 1,376 more rows

order <- c("0-4", "15-19", "20-24", "25-29", "30-34", "35-39", "40-44", "45-49", "50-54", "55-59", "60-64", "65-69", "70-74", "75-79", "80-84", "85-89", "90 & Over")

sorted_pop <- new_pop %>%
  mutate(`AG` =  factor(`AG`, levels = order)) %>%
  arrange(`AG`)

sorted_pop$nCount = ifelse(sorted_pop$Sex == "Male", 
                                 yes = -sorted_pop$Count, 
                                 no = sorted_pop$Count)

sorted_pop

# A tibble: 1,386 × 6
   Sex    AG         Time PA            Count nCount
   <chr>  <fct>     <int> <chr>         <dbl>  <dbl>
 1 Female 90 & Over  2022 Ang Mo Kio     3540   3540
 2 Female 90 & Over  2022 Bedok          5590   5590
 3 Female 90 & Over  2022 Bishan         1810   1810
 4 Female 90 & Over  2022 Bukit Batok    1810   1810
 5 Female 90 & Over  2022 Bukit Merah    4040   4040
 6 Female 90 & Over  2022 Bukit Panjang  1550   1550
 7 Female 90 & Over  2022 Bukit Timah    1580   1580
 8 Female 90 & Over  2022 Changi           20     20
 9 Female 90 & Over  2022 Choa Chu Kang  1660   1660
10 Female 90 & Over  2022 Clementi       1690   1690
# … with 1,376 more rows
…
